{
	"name": "searchanywhere",
	"title": "Search Anywhere",
	"description": "Adds a way to quickly search for any entity by name via a handy auto-complete widget",
	"version": "2.1.0",
	"minimumCoreVersion" : "0.8.6",
	"compatibleCoreVersion" : "0.8.6",
	"author": "Simone",
	"dependencies": [{
		"name": "settings-extender",
		"type": "module"
	}],
	"scripts": [
		"./libs/flexsearch.min.js",
		"./libs/jquery.autocomplete.js",
		"./searchanywhere.js"
	],
	"styles": [
		"./searchanywhere.css"
	],
	"languages": [{
		"lang": "en",
		"name": "English",
		"path": "./lang/en.json"
	}, {
		"lang": "it",
		"name": "Italian",
		"path": "./lang/it.json"
	}],
	"url": "https://gitlab.com/riccisi/foundryvtt-search-anywhere",
	"manifest": "https://gitlab.com/riccisi/foundryvtt-search-anywhere/raw/master/module/module.json",
	"download": "https://gitlab.com/riccisi/foundryvtt-search-anywhere/-/jobs/artifacts/2.1.0/raw/search-anywhere.zip?job=build"
}